{
  "name": "smartdv_request_datasheet",
  "readableName": "Smartdv Request Datasheet",
  "media": "image",
  "mediaUrl": false,
  "siteUrl": "https://dev-smart-dv.pantheonsite.io/services-productivity/",
  "tags": [
    "ayman",
    "ali",
    "abbass"
  ]
}
