{
  "name": "headversity_map_block",
  "readableName": "Headversity Map Block",
  "media": "image",
  "mediaUrl": false,
  "siteUrl": "https://headversity.com/",
  "tags": [
    "ayman",
    "ali",
    "abbass"
  ]
}
