{
  "name": "eternal_spring_press_block",
  "readableName": "Eternal Spring Press Block",
  "media": "image",
  "mediaUrl": false,
  "siteUrl": "https://swc.takeoff.dev/news-events/",
  "tags": [
    "ayman",
    "ali",
    "abbass"
  ]
}
