[
    {
        "key": "group_81d0972440bc29",
        "title": "Pricing Table And Toggle",
        "fields": [
            {
                "key": "field_81d097244095d9",
                "label": "Block Content",
                "name": "",
                "type": "tab",
                "instructions": "",
                "required": 0,
                "conditional_logic": 0,
                "wrapper": {
                    "width": "",
                    "class": "",
                    "id": ""
                },
                "placement": "top",
                "endpoint": 0
            },
            {
                "key": "field_6368dc30171d9",
                "label": "Manually Or Automatically",
                "name": "manually_or_automatically",
                "type": "true_false",
                "instructions": "",
                "required": 0,
                "conditional_logic": 0,
                "wrapper": {
                    "width": "",
                    "class": "",
                    "id": ""
                },
                "message": "",
                "default_value": 0,
                "ui": 1,
                "ui_on_text": "Manually",
                "ui_off_text": "Automatically"
            },
            {
                "key": "field_6368dc83171da",
                "label": "Plans",
                "name": "plans",
                "type": "relationship",
                "instructions": "",
                "required": 0,
                "conditional_logic": [
                    [
                        {
                            "field": "field_6368dc30171d9",
                            "operator": "==",
                            "value": "1"
                        }
                    ]
                ],
                "wrapper": {
                    "width": "",
                    "class": "",
                    "id": ""
                },
                "post_type": [
                    "plans"
                ],
                "taxonomy": [
                    "category:featured"
                ],
                "filters": [
                    "search",
                    "post_type",
                    "taxonomy"
                ],
                "elements": "",
                "min": "",
                "max": "",
                "return_format": "id"
            },
            {
                "key": "field_6368f7ce35fd6",
                "label": "Query Options",
                "name": "query_options",
                "type": "group",
                "instructions": "",
                "required": 0,
                "conditional_logic": [
                    [
                        {
                            "field": "field_6368dc30171d9",
                            "operator": "!=",
                            "value": "1"
                        }
                    ]
                ],
                "wrapper": {
                    "width": "",
                    "class": "",
                    "id": ""
                },
                "layout": "block",
                "sub_fields": [
                    {
                        "key": "field_6368f7dc35fd7",
                        "label": "Number Of Posts",
                        "name": "number_of_posts",
                        "type": "number",
                        "instructions": "",
                        "required": 0,
                        "conditional_logic": 0,
                        "wrapper": {
                            "width": "",
                            "class": "",
                            "id": ""
                        },
                        "default_value": 4,
                        "placeholder": "",
                        "prepend": "",
                        "append": "",
                        "min": "",
                        "max": "",
                        "step": ""
                    },
                    {
                        "key": "field_6368f86335fd8",
                        "label": "Order",
                        "name": "order",
                        "type": "radio",
                        "instructions": "",
                        "required": 0,
                        "conditional_logic": 0,
                        "wrapper": {
                            "width": "",
                            "class": "",
                            "id": ""
                        },
                        "choices": {
                            "desc": "Latest",
                            "asc": "Oldest"
                        },
                        "allow_null": 0,
                        "other_choice": 0,
                        "default_value": "",
                        "layout": "horizontal",
                        "return_format": "value",
                        "save_other_choice": 0
                    }
                ]
            },
            {
                "key": "field_6368be4a42dfd",
                "label": "Table Title",
                "name": "table_title",
                "type": "wysiwyg",
                "instructions": "",
                "required": 0,
                "conditional_logic": 0,
                "wrapper": {
                    "width": "",
                    "class": "medium-field",
                    "id": ""
                },
                "default_value": "",
                "tabs": "all",
                "toolbar": "full",
                "media_upload": 0,
                "delay": 1
            }
        ],
        "location": [
            [
                {
                    "param": "block",
                    "operator": "==",
                    "value": "acf\/pricing-table-and-toggle"
                }
            ]
        ],
        "menu_order": 0,
        "position": "acf_after_title",
        "style": "default",
        "label_placement": "top",
        "instruction_placement": "label",
        "hide_on_screen": "",
        "active": true,
        "description": "",
        "modified": 1668498079
    }
]