{
  "name": "headversity_footer",
  "readableName": "Headversity Footer",
  "media": "image",
  "mediaUrl": false,
  "siteUrl": "https://headversity.com/",
  "tags": [
    "ayman",
    "ali",
    "abbass"
  ]
}
