{
  "name": "eisgroup_resource_block_subscribe",
  "readableName": "Eisgroup Resource Block Subscribe",
  "media": "image",
  "mediaUrl": false,
  "siteUrl": "https://www.eisgroup.com/resources-center/",
  "tags": [
    "ayman",
    "ali",
    "abbass"
  ]
}
