{
  "name": "smartdv_testimonials_block",
  "readableName": "Testimonials Block",
  "media": "image",
  "mediaUrl": false,
  "siteUrl": "https://dev-smart-dv.pantheonsite.io",
  "tags": [
    "ayman",
    "ali",
    "abbass"
  ]
}
