{
  "name": "zineone_success_stories_block",
  "readableName": "Zineone Success Stories Block",
  "media": "image",
  "mediaUrl": false,
  "siteUrl": "https://www.zineone.com",
  "tags": [
    "ayman",
    "ali",
    "abbass"
  ]
}
