{
  "name": "smartdv_products_filter_block",
  "readableName": "Smartdv Products Filter Block",
  "media": "image",
  "mediaUrl": false,
  "siteUrl": "https://dev-smart-dv.pantheonsite.io/by-application/",
  "tags": [
    "ayman",
    "ali",
    "abbass"
  ]
}
