[
    {
        "key": "group_f772bd73a5a6e1",
        "title": "Video Or Image Slider",
        "fields": [
            {
                "key": "field_f772bd73a5733b",
                "label": "Block Content",
                "name": "",
                "type": "tab",
                "instructions": "",
                "required": 0,
                "conditional_logic": 0,
                "wrapper": {
                    "width": "",
                    "class": "",
                    "id": ""
                },
                "placement": "top",
                "endpoint": 0
            },
            {
                "key": "field_6354fab085088",
                "label": "Choose You Media",
                "name": "choose_you_media",
                "type": "radio",
                "instructions": "",
                "required": 0,
                "conditional_logic": 0,
                "wrapper": {
                    "width": "",
                    "class": "",
                    "id": ""
                },
                "choices": {
                    "images": "Images",
                    "video": "Video"
                },
                "allow_null": 0,
                "other_choice": 0,
                "default_value": "",
                "layout": "horizontal",
                "return_format": "value",
                "save_other_choice": 0
            },
            {
                "key": "field_6354342621fc3",
                "label": "Main Title",
                "name": "main_title",
                "type": "text",
                "instructions": "",
                "required": 0,
                "conditional_logic": 0,
                "wrapper": {
                    "width": "",
                    "class": "",
                    "id": ""
                },
                "default_value": "",
                "placeholder": "",
                "prepend": "",
                "append": "",
                "maxlength": ""
            },
            {
                "key": "field_6354343621fc4",
                "label": "Main Description",
                "name": "main_description",
                "type": "wysiwyg",
                "instructions": "",
                "required": 0,
                "conditional_logic": 0,
                "wrapper": {
                    "width": "",
                    "class": "medium-field",
                    "id": ""
                },
                "default_value": "",
                "tabs": "all",
                "toolbar": "full",
                "media_upload": 0,
                "delay": 0
            },
            {
                "key": "field_6354345b21fc5",
                "label": "Gallery",
                "name": "gallery",
                "type": "repeater",
                "instructions": "",
                "required": 0,
                "conditional_logic": [
                    [
                        {
                            "field": "field_6354fab085088",
                            "operator": "==",
                            "value": "images"
                        }
                    ]
                ],
                "wrapper": {
                    "width": "",
                    "class": "",
                    "id": ""
                },
                "collapsed": "",
                "min": 0,
                "max": 0,
                "layout": "block",
                "button_label": "",
                "sub_fields": [
                    {
                        "key": "field_635434b621fc7",
                        "label": "Image",
                        "name": "image",
                        "type": "image",
                        "instructions": "",
                        "required": 0,
                        "conditional_logic": [
                            [
                                {
                                    "field": "field_6354347d21fc6",
                                    "operator": "!=",
                                    "value": "1"
                                }
                            ]
                        ],
                        "wrapper": {
                            "width": "",
                            "class": "",
                            "id": ""
                        },
                        "return_format": "array",
                        "preview_size": "medium",
                        "library": "all",
                        "min_width": "",
                        "min_height": "",
                        "min_size": "",
                        "max_width": "",
                        "max_height": "",
                        "max_size": "",
                        "mime_types": ""
                    },
                    {
                        "key": "field_6354364821fce",
                        "label": "Caption",
                        "name": "caption",
                        "type": "text",
                        "instructions": "",
                        "required": 0,
                        "conditional_logic": 0,
                        "wrapper": {
                            "width": "",
                            "class": "",
                            "id": ""
                        },
                        "default_value": "",
                        "placeholder": "",
                        "prepend": "",
                        "append": "",
                        "maxlength": ""
                    }
                ]
            },
            {
                "key": "field_635434c121fc8",
                "label": "Video Options",
                "name": "video_options",
                "type": "group",
                "instructions": "",
                "required": 0,
                "conditional_logic": [
                    [
                        {
                            "field": "field_6354fab085088",
                            "operator": "==",
                            "value": "video"
                        }
                    ]
                ],
                "wrapper": {
                    "width": "100",
                    "class": "",
                    "id": ""
                },
                "layout": "block",
                "sub_fields": [
                    {
                        "key": "field_635434d921fc9",
                        "label": "Video Type",
                        "name": "video_type",
                        "type": "select",
                        "instructions": "",
                        "required": 0,
                        "conditional_logic": [
                            [
                                {
                                    "field": "field_6354347d21fc6",
                                    "operator": "==",
                                    "value": "1"
                                }
                            ]
                        ],
                        "wrapper": {
                            "width": "40",
                            "class": "",
                            "id": ""
                        },
                        "choices": {
                            "video_file": "Video File",
                            "video_url": "Video URL",
                            "youtube": "Youtube URL",
                            "vimeo": "Vimeo URL"
                        },
                        "default_value": false,
                        "allow_null": 0,
                        "multiple": 0,
                        "ui": 0,
                        "return_format": "value",
                        "ajax": 0,
                        "placeholder": ""
                    },
                    {
                        "key": "field_635434f721fca",
                        "label": "Video URL",
                        "name": "video_url",
                        "type": "url",
                        "instructions": "",
                        "required": 0,
                        "conditional_logic": [
                            [
                                {
                                    "field": "field_635434d921fc9",
                                    "operator": "==",
                                    "value": "video_url"
                                }
                            ]
                        ],
                        "wrapper": {
                            "width": "60",
                            "class": "",
                            "id": ""
                        },
                        "default_value": "",
                        "placeholder": ""
                    },
                    {
                        "key": "field_6354352021fcb",
                        "label": "Video File",
                        "name": "video_file",
                        "type": "file",
                        "instructions": "",
                        "required": 0,
                        "conditional_logic": [
                            [
                                {
                                    "field": "field_635434d921fc9",
                                    "operator": "==",
                                    "value": "video_file"
                                }
                            ]
                        ],
                        "wrapper": {
                            "width": "60",
                            "class": "",
                            "id": ""
                        },
                        "return_format": "url",
                        "library": "all",
                        "min_size": "",
                        "max_size": "",
                        "mime_types": ""
                    },
                    {
                        "key": "field_6354354021fcc",
                        "label": "Youtube URL",
                        "name": "youtube_url",
                        "type": "url",
                        "instructions": "",
                        "required": 0,
                        "conditional_logic": [
                            [
                                {
                                    "field": "field_635434d921fc9",
                                    "operator": "==",
                                    "value": "youtube"
                                }
                            ]
                        ],
                        "wrapper": {
                            "width": "60",
                            "class": "",
                            "id": ""
                        },
                        "default_value": "",
                        "placeholder": ""
                    },
                    {
                        "key": "field_6354356021fcd",
                        "label": "Vimeo URL",
                        "name": "vimeo_url",
                        "type": "url",
                        "instructions": "",
                        "required": 0,
                        "conditional_logic": [
                            [
                                {
                                    "field": "field_635434d921fc9",
                                    "operator": "==",
                                    "value": "vimeo"
                                }
                            ]
                        ],
                        "wrapper": {
                            "width": "60",
                            "class": "",
                            "id": ""
                        },
                        "default_value": "",
                        "placeholder": ""
                    }
                ]
            },
            {
                "key": "field_6354365621fcf",
                "label": "Title",
                "name": "title",
                "type": "text",
                "instructions": "",
                "required": 0,
                "conditional_logic": 0,
                "wrapper": {
                    "width": "",
                    "class": "",
                    "id": ""
                },
                "default_value": "",
                "placeholder": "",
                "prepend": "",
                "append": "",
                "maxlength": ""
            },
            {
                "key": "field_6354366321fd0",
                "label": "Date Type",
                "name": "date_type",
                "type": "date_picker",
                "instructions": "",
                "required": 0,
                "conditional_logic": 0,
                "wrapper": {
                    "width": "",
                    "class": "",
                    "id": ""
                },
                "display_format": "d\/m\/Y",
                "return_format": "F j, Y",
                "first_day": 1
            },
            {
                "key": "field_6354366e21fd1",
                "label": "Description",
                "name": "description",
                "type": "wysiwyg",
                "instructions": "",
                "required": 0,
                "conditional_logic": 0,
                "wrapper": {
                    "width": "",
                    "class": "medium-field",
                    "id": ""
                },
                "default_value": "",
                "tabs": "all",
                "toolbar": "full",
                "media_upload": 0,
                "delay": 0
            }
        ],
        "location": [
            [
                {
                    "param": "block",
                    "operator": "==",
                    "value": "acf\/video-or-image-slider"
                }
            ]
        ],
        "menu_order": 0,
        "position": "acf_after_title",
        "style": "default",
        "label_placement": "top",
        "instruction_placement": "label",
        "hide_on_screen": "",
        "active": true,
        "description": "",
        "show_in_rest": false,
        "modified": 1666514994
    }
]