[
    {
        "key": "group_6272ca9cde127",
        "title": "Case Studies - Archive Template",
        "fields": [
            {
                "key": "field_6272caafc65a4",
                "label": "Archive Title",
                "name": "archive_title",
                "aria-label": "",
                "type": "text",
                "instructions": "",
                "required": 0,
                "conditional_logic": 0,
                "wrapper": {
                    "width": "",
                    "class": "",
                    "id": ""
                },
                "default_value": "Case Studies",
                "placeholder": "",
                "prepend": "",
                "append": "",
                "maxlength": ""
            },
            {
                "key": "field_6272cae0c65a5",
                "label": "Archive Description",
                "name": "archive_description",
                "aria-label": "",
                "type": "wysiwyg",
                "instructions": "",
                "required": 0,
                "conditional_logic": 0,
                "wrapper": {
                    "width": "",
                    "class": "",
                    "id": ""
                },
                "default_value": "",
                "tabs": "all",
                "toolbar": "full",
                "media_upload": 0,
                "delay": 0
            },
            {
                "key": "field_6272caf5c65a6",
                "label": "Query Options",
                "name": "query_options",
                "aria-label": "",
                "type": "group",
                "instructions": "",
                "required": 0,
                "conditional_logic": 0,
                "wrapper": {
                    "width": "",
                    "class": "",
                    "id": ""
                },
                "layout": "block",
                "sub_fields": [
                    {
                        "key": "field_6272cb0ac65a8",
                        "label": "Order",
                        "name": "order",
                        "aria-label": "",
                        "type": "radio",
                        "instructions": "",
                        "required": 0,
                        "conditional_logic": 0,
                        "wrapper": {
                            "width": "50",
                            "class": "",
                            "id": ""
                        },
                        "choices": {
                            "DESC": "Descending",
                            "ASC": "Ascending"
                        },
                        "allow_null": 0,
                        "other_choice": 0,
                        "default_value": "",
                        "layout": "horizontal",
                        "return_format": "value",
                        "save_other_choice": 0
                    },
                    {
                        "key": "field_6272cafbc65a7",
                        "label": "Posts Per Page",
                        "name": "posts_per_page",
                        "aria-label": "",
                        "type": "number",
                        "instructions": "",
                        "required": 0,
                        "conditional_logic": 0,
                        "wrapper": {
                            "width": "50",
                            "class": "",
                            "id": ""
                        },
                        "default_value": 9,
                        "placeholder": "",
                        "prepend": "",
                        "append": "",
                        "min": "",
                        "max": "",
                        "step": ""
                    }
                ]
            }
        ],
        "location": [
            [
                {
                    "param": "page_template",
                    "operator": "==",
                    "value": "case-studies-archive-template.php"
                }
            ]
        ],
        "menu_order": 0,
        "position": "normal",
        "style": "default",
        "label_placement": "top",
        "instruction_placement": "label",
        "hide_on_screen": "",
        "active": true,
        "description": "",
        "show_in_rest": 0,
        "modified": 1662637800
    }
]