{
  "name": "k1_companies_block",
  "readableName": "k1 companies block",
  "media": "image",
  "mediaUrl": false,
  "siteUrl": "https://cyberhillpartners.com/knowledge-portal/",
  "tags": [
    "ayman",
    "ali",
    "abbass"
  ]
}
