{
  "name": "cyberhill_footer",
  "readableName": "Cyberhill Footer",
  "media": "image",
  "mediaUrl": false,
  "siteUrl": "https://cyberhillpartners.com/",
  "tags": [
    "ayman",
    "ali",
    "abbass"
  ]
}
