[
    {
        "key": "group_7b9dc2745420d6",
        "title": "Contact Form",
        "fields": [
            {
                "key": "field_7b9dc27454402f",
                "label": "Block Content",
                "name": "",
                "type": "tab",
                "instructions": "",
                "required": 0,
                "conditional_logic": 0,
                "wrapper": {
                    "width": "",
                    "class": "",
                    "id": ""
                },
                "aria-label": "",
                "placement": "top",
                "endpoint": 0
            },
            {
                "key": "field_6358dd3183c1e",
                "label": "Form",
                "name": "form",
                "type": "forms",
                "instructions": "",
                "required": 0,
                "conditional_logic": 0,
                "wrapper": {
                    "width": "",
                    "class": "",
                    "id": ""
                },
                "aria-label": "",
                "return_format": "id",
                "allow_null": 0,
                "multiple": 0
            }
        ],
        "location": [
            [
                {
                    "param": "block",
                    "operator": "==",
                    "value": "acf\/contact-form"
                }
            ]
        ],
        "menu_order": 0,
        "position": "acf_after_title",
        "style": "default",
        "label_placement": "top",
        "instruction_placement": "label",
        "hide_on_screen": "",
        "active": true,
        "description": "",
        "show_in_rest": 0,
        "modified": 1666791662
    }
]