[
    {
        "key": "group_62a9bf51b44df",
        "title": "Solutions Toggle Block",
        "fields": [
            {
                "key": "field_62a9bf51bbd1f",
                "label": "Block Content",
                "name": "",
                "type": "tab",
                "instructions": "",
                "required": 0,
                "conditional_logic": 0,
                "wrapper": {
                    "width": "",
                    "class": "",
                    "id": ""
                },
                "placement": "top",
                "endpoint": 0
            },
            {
                "key": "field_62a9bf68d2107",
                "label": "Block Title",
                "name": "block_title",
                "type": "text",
                "instructions": "",
                "required": 0,
                "conditional_logic": 0,
                "wrapper": {
                    "width": "100",
                    "class": "",
                    "id": ""
                },
                "default_value": "",
                "placeholder": "",
                "prepend": "",
                "append": "",
                "maxlength": ""
            },
            {
                "key": "field_62a9c049d2108",
                "label": "Left Tap",
                "name": "left_tap",
                "type": "group",
                "instructions": "",
                "required": 0,
                "conditional_logic": 0,
                "wrapper": {
                    "width": "49",
                    "class": "",
                    "id": ""
                },
                "layout": "block",
                "sub_fields": [
                    {
                        "key": "field_62a9c062d2109",
                        "label": "Tap Title",
                        "name": "tap_title",
                        "type": "text",
                        "instructions": "",
                        "required": 0,
                        "conditional_logic": 0,
                        "wrapper": {
                            "width": "",
                            "class": "",
                            "id": ""
                        },
                        "default_value": "",
                        "placeholder": "",
                        "prepend": "",
                        "append": "",
                        "maxlength": ""
                    },
                    {
                        "key": "field_62a9c073d210a",
                        "label": "Tap Description",
                        "name": "tap_description",
                        "type": "wysiwyg",
                        "instructions": "",
                        "required": 0,
                        "conditional_logic": 0,
                        "wrapper": {
                            "width": "",
                            "class": "small-field",
                            "id": ""
                        },
                        "default_value": "",
                        "tabs": "all",
                        "toolbar": "basic",
                        "media_upload": 0,
                        "delay": 0
                    }
                ]
            },
            {
                "key": "field_62a9c2d7d5e8c",
                "label": "Right Tap",
                "name": "right_tap",
                "type": "group",
                "instructions": "",
                "required": 0,
                "conditional_logic": 0,
                "wrapper": {
                    "width": "49",
                    "class": "",
                    "id": ""
                },
                "layout": "block",
                "sub_fields": [
                    {
                        "key": "field_62a9c2d7d5e8e",
                        "label": "Tap Title",
                        "name": "tap_title",
                        "type": "text",
                        "instructions": "",
                        "required": 0,
                        "conditional_logic": 0,
                        "wrapper": {
                            "width": "",
                            "class": "",
                            "id": ""
                        },
                        "default_value": "",
                        "placeholder": "",
                        "prepend": "",
                        "append": "",
                        "maxlength": ""
                    },
                    {
                        "key": "field_62a9c2d7d5e8f",
                        "label": "Tap Description",
                        "name": "tap_description",
                        "type": "wysiwyg",
                        "instructions": "",
                        "required": 0,
                        "conditional_logic": 0,
                        "wrapper": {
                            "width": "",
                            "class": "small-field",
                            "id": ""
                        },
                        "default_value": "",
                        "tabs": "all",
                        "toolbar": "basic",
                        "media_upload": 0,
                        "delay": 0
                    }
                ]
            },
            {
                "key": "field_62a9ebecf1175",
                "label": "Contents",
                "name": "contents",
                "type": "repeater",
                "instructions": "",
                "required": 0,
                "conditional_logic": 0,
                "wrapper": {
                    "width": "",
                    "class": "",
                    "id": ""
                },
                "collapsed": "",
                "min": 2,
                "max": 2,
                "layout": "block",
                "button_label": "Add Content",
                "sub_fields": [
                    {
                        "key": "field_62cff5f0b05a0",
                        "label": "Orbs Color",
                        "name": "orbs_color",
                        "type": "select",
                        "instructions": "",
                        "required": 0,
                        "conditional_logic": 0,
                        "wrapper": {
                            "width": "",
                            "class": "",
                            "id": ""
                        },
                        "choices": {
                            "orange": "Orange",
                            "green": "Green",
                            "blue": "Blue",
                            "light-blue": "Light Blue",
                            "purple": "Purple",
                            "yellow": "Yellow"
                        },
                        "default_value": "orange",
                        "allow_null": 0,
                        "multiple": 0,
                        "ui": 0,
                        "return_format": "value",
                        "ajax": 0,
                        "placeholder": ""
                    },
                    {
                        "key": "field_62a9ce7a5ae31",
                        "label": "Block Description",
                        "name": "block_description",
                        "type": "wysiwyg",
                        "instructions": "",
                        "required": 0,
                        "conditional_logic": 0,
                        "wrapper": {
                            "width": "",
                            "class": "medium-field",
                            "id": ""
                        },
                        "default_value": "",
                        "tabs": "all",
                        "toolbar": "full",
                        "media_upload": 0,
                        "delay": 0
                    },
                    {
                        "key": "field_62a9ced35ae32",
                        "label": "Achievement",
                        "name": "achievement",
                        "type": "repeater",
                        "instructions": "",
                        "required": 0,
                        "conditional_logic": 0,
                        "wrapper": {
                            "width": "",
                            "class": "",
                            "id": ""
                        },
                        "collapsed": "",
                        "min": 0,
                        "max": 0,
                        "layout": "block",
                        "button_label": "Add Achievement",
                        "sub_fields": [
                            {
                                "key": "field_62a9cf165ae33",
                                "label": "Achievement Name",
                                "name": "achievement_name",
                                "type": "text",
                                "instructions": "",
                                "required": 0,
                                "conditional_logic": 0,
                                "wrapper": {
                                    "width": "60",
                                    "class": "",
                                    "id": ""
                                },
                                "default_value": "",
                                "placeholder": "",
                                "prepend": "",
                                "append": "",
                                "maxlength": ""
                            }
                        ]
                    },
                    {
                        "key": "field_62a9d123f1b04",
                        "label": "Image Section",
                        "name": "image_section",
                        "type": "group",
                        "instructions": "",
                        "required": 0,
                        "conditional_logic": 0,
                        "wrapper": {
                            "width": "",
                            "class": "",
                            "id": ""
                        },
                        "layout": "block",
                        "sub_fields": [
                            {
                                "key": "field_62a9d13af1b05",
                                "label": "Main Image",
                                "name": "main_image",
                                "type": "image",
                                "instructions": "",
                                "required": 1,
                                "conditional_logic": 0,
                                "wrapper": {
                                    "width": "",
                                    "class": "",
                                    "id": ""
                                },
                                "return_format": "array",
                                "preview_size": "medium",
                                "library": "all",
                                "min_width": "",
                                "min_height": "",
                                "min_size": "",
                                "max_width": "",
                                "max_height": "",
                                "max_size": "",
                                "mime_types": ""
                            },
                            {
                                "key": "field_62a9d15cf1b06",
                                "label": "left Image",
                                "name": "left_image",
                                "type": "image",
                                "instructions": "",
                                "required": 0,
                                "conditional_logic": 0,
                                "wrapper": {
                                    "width": "60",
                                    "class": "",
                                    "id": ""
                                },
                                "return_format": "array",
                                "preview_size": "thumbnail",
                                "library": "all",
                                "min_width": "",
                                "min_height": "",
                                "min_size": "",
                                "max_width": "",
                                "max_height": "",
                                "max_size": "",
                                "mime_types": ""
                            },
                            {
                                "key": "field_62a9d224b39a5",
                                "label": "Is Rounded",
                                "name": "is_rounded_left",
                                "type": "true_false",
                                "instructions": "",
                                "required": 0,
                                "conditional_logic": 0,
                                "wrapper": {
                                    "width": "30",
                                    "class": "",
                                    "id": ""
                                },
                                "message": "",
                                "default_value": 0,
                                "ui": 1,
                                "ui_on_text": "",
                                "ui_off_text": ""
                            },
                            {
                                "key": "field_62a9d181f1b07",
                                "label": "Right Image",
                                "name": "right_image",
                                "type": "image",
                                "instructions": "",
                                "required": 0,
                                "conditional_logic": 0,
                                "wrapper": {
                                    "width": "60",
                                    "class": "",
                                    "id": ""
                                },
                                "return_format": "array",
                                "preview_size": "thumbnail",
                                "library": "all",
                                "min_width": "",
                                "min_height": "",
                                "min_size": "",
                                "max_width": "",
                                "max_height": "",
                                "max_size": "",
                                "mime_types": ""
                            },
                            {
                                "key": "field_62a9d1e88e6f9",
                                "label": "Is Rounded",
                                "name": "is_rounded_right",
                                "type": "true_false",
                                "instructions": "",
                                "required": 0,
                                "conditional_logic": 0,
                                "wrapper": {
                                    "width": "30",
                                    "class": "",
                                    "id": ""
                                },
                                "message": "",
                                "default_value": 0,
                                "ui": 1,
                                "ui_on_text": "",
                                "ui_off_text": ""
                            }
                        ]
                    }
                ]
            }
        ],
        "location": [
            [
                {
                    "param": "block",
                    "operator": "==",
                    "value": "acf\/solutions-toggle-block"
                }
            ]
        ],
        "menu_order": 0,
        "position": "acf_after_title",
        "style": "default",
        "label_placement": "top",
        "instruction_placement": "label",
        "hide_on_screen": "",
        "active": true,
        "description": "",
        "show_in_rest": 0,
        "modified": 1657796202
    }
]