{
  "name": "headversity_solutions_toggle_Block",
  "readableName": "Headversity Solutions Toggle Block",
  "media": "image",
  "mediaUrl": false,
  "siteUrl": "https://headversity.com/solutions/",
  "tags": [
    "ayman",
    "ali",
    "abbass"
  ]
}
