{
  "name": "raistone_what_raistone_can_do_block",
  "readableName": "Raistone What Raistone Can Do Block",
  "media": "image",
  "mediaUrl": false,
  "siteUrl": "https://raistone.com/",
  "tags": [
    "ayman",
    "ali",
    "abbass"
  ]
}
