{
  "name": "smartdv_tabs_section",
  "readableName": "Smartdv Tabs Section",
  "media": "image",
  "mediaUrl": false,
  "siteUrl": "https://dev-smart-dv.pantheonsite.io/about-us-ecosystem-new/",
  "tags": [
    "ayman",
    "ali",
    "abbass"
  ]
}
