{
    "key": "group_6094fd665efa2",
    "title": "Page Header Block",
    "fields": [
        {
            "key": "field_6094fd666dbdf",
            "label": "Block Content",
            "name": "",
            "type": "tab",
            "instructions": "",
            "required": 0,
            "conditional_logic": 0,
            "wrapper": {
                "width": "",
                "class": "",
                "id": ""
            },
            "acfe_permissions": "",
            "open": 0,
            "multi_expand": 0,
            "endpoint": 0,
            "placement": "top",
            "acfe_form": true
        },
        {
            "key": "field_6094fdbd6460e",
            "label": "Choose Hero",
            "name": "choose_hero",
            "type": "select",
            "instructions": "",
            "required": 1,
            "conditional_logic": 0,
            "wrapper": {
                "width": "",
                "class": "",
                "id": ""
            },
            "choices": {
                "home-hero": "Home Hero",
                "property-managers-hero": "Property Managers Hero",
                "faq-hero": "Faq Hero",
                "about-hero": "About Hero",
                "affiliate-program-hero": "Affiliate Program Hero",
                "success-hero": "Success Hero",
                "free-credit-report-hero": "Free Credit Report Hero",
                "competitors-hero": "Competitors Hero (landing page)",
                "brokers-hero": "Brokers Hero (landing page)"
            },
            "default_value": false,
            "allow_null": 0,
            "multiple": 0,
            "ui": 1,
            "ajax": 0,
            "return_format": "value",
            "placeholder": ""
        },
        {
            "key": "field_6097eded32997",
            "label": "Title",
            "name": "title",
            "type": "text",
            "instructions": "",
            "required": 0,
            "conditional_logic": [
                [
                    {
                        "field": "field_6094fdbd6460e",
                        "operator": "!=",
                        "value": "brokers-hero"
                    }
                ]
            ],
            "wrapper": {
                "width": "",
                "class": "",
                "id": ""
            },
            "default_value": "Build your credit by  reporting your rent",
            "placeholder": "",
            "prepend": "",
            "append": "",
            "maxlength": ""
        },
        {
            "key": "field_6097ee0532998",
            "label": "Description",
            "name": "description",
            "type": "wysiwyg",
            "instructions": "",
            "required": 0,
            "conditional_logic": [
                [
                    {
                        "field": "field_6094fdbd6460e",
                        "operator": "!=",
                        "value": "brokers-hero"
                    }
                ]
            ],
            "wrapper": {
                "width": "",
                "class": "small-field",
                "id": ""
            },
            "default_value": "We can help you change your credit score and jumpstart your way to a brighter financial future",
            "tabs": "all",
            "toolbar": "full",
            "media_upload": 0,
            "delay": 0
        },
        {
            "key": "field_60980c2642577",
            "label": "Description link",
            "name": "description_link",
            "type": "link",
            "instructions": "",
            "required": 0,
            "conditional_logic": [
                [
                    {
                        "field": "field_6094fdbd6460e",
                        "operator": "==",
                        "value": "faq-hero"
                    },
                    {
                        "field": "field_6094fdbd6460e",
                        "operator": "!=",
                        "value": "brokers-hero"
                    }
                ]
            ],
            "wrapper": {
                "width": "",
                "class": "",
                "id": ""
            },
            "return_format": "array"
        },
        {
            "key": "field_609528cc90e42",
            "label": "Is Has Link",
            "name": "is_has_link",
            "type": "true_false",
            "instructions": "",
            "required": 0,
            "conditional_logic": [
                [
                    {
                        "field": "field_6094fdbd6460e",
                        "operator": "!=",
                        "value": "brokers-hero"
                    }
                ]
            ],
            "wrapper": {
                "width": "50",
                "class": "",
                "id": ""
            },
            "message": "",
            "default_value": 0,
            "ui": 1,
            "ui_on_text": "",
            "ui_off_text": ""
        },
        {
            "key": "field_6097ee61af3a2",
            "label": "CTA Button",
            "name": "cta_button",
            "type": "link",
            "instructions": "",
            "required": 0,
            "conditional_logic": [
                [
                    {
                        "field": "field_609528cc90e42",
                        "operator": "==",
                        "value": "1"
                    },
                    {
                        "field": "field_6094fdbd6460e",
                        "operator": "!=",
                        "value": "brokers-hero"
                    }
                ]
            ],
            "wrapper": {
                "width": "50",
                "class": "",
                "id": ""
            },
            "return_format": "array"
        },
        {
            "key": "field_609503407ccb9",
            "label": "Hero Image",
            "name": "hero_image",
            "type": "image",
            "instructions": "",
            "required": 1,
            "conditional_logic": [
                [
                    {
                        "field": "field_6094fdbd6460e",
                        "operator": "!=",
                        "value": "free-credit-report-hero"
                    },
                    {
                        "field": "field_6094fdbd6460e",
                        "operator": "!=",
                        "value": "competitors-hero"
                    },
                    {
                        "field": "field_6094fdbd6460e",
                        "operator": "!=",
                        "value": "brokers-hero"
                    }
                ]
            ],
            "wrapper": {
                "width": "",
                "class": "",
                "id": ""
            },
            "return_format": "array",
            "preview_size": "medium",
            "library": "all",
            "min_width": "",
            "min_height": "",
            "min_size": "",
            "max_width": "",
            "max_height": "",
            "max_size": "",
            "mime_types": ""
        },
        {
            "key": "field_6097f1d647838",
            "label": "Logos Wrapper",
            "name": "logos_wrapper",
            "type": "group",
            "instructions": "",
            "required": 0,
            "conditional_logic": [
                [
                    {
                        "field": "field_6094fdbd6460e",
                        "operator": "==",
                        "value": "free-credit-report-hero"
                    },
                    {
                        "field": "field_6094fdbd6460e",
                        "operator": "!=",
                        "value": "brokers-hero"
                    }
                ]
            ],
            "wrapper": {
                "width": "",
                "class": "",
                "id": ""
            },
            "layout": "block",
            "sub_fields": [
                {
                    "key": "field_6097f1711ba99",
                    "label": "Title",
                    "name": "title",
                    "type": "text",
                    "instructions": "",
                    "required": 0,
                    "conditional_logic": 0,
                    "wrapper": {
                        "width": "50",
                        "class": "",
                        "id": ""
                    },
                    "default_value": "We report to the top credit bureaus",
                    "placeholder": "",
                    "prepend": "",
                    "append": "",
                    "maxlength": ""
                },
                {
                    "key": "field_6097f19c1ba9a",
                    "label": "Logos",
                    "name": "logos",
                    "type": "repeater",
                    "instructions": "",
                    "required": 0,
                    "conditional_logic": 0,
                    "wrapper": {
                        "width": "",
                        "class": "",
                        "id": ""
                    },
                    "collapsed": "",
                    "min": 0,
                    "max": 0,
                    "layout": "block",
                    "button_label": "",
                    "sub_fields": [
                        {
                            "key": "field_6097f1a71ba9b",
                            "label": "Logo Image",
                            "name": "logo_image",
                            "type": "image",
                            "instructions": "",
                            "required": 0,
                            "conditional_logic": 0,
                            "wrapper": {
                                "width": "50",
                                "class": "",
                                "id": ""
                            },
                            "return_format": "array",
                            "preview_size": "medium",
                            "library": "all",
                            "min_width": "",
                            "min_height": "",
                            "min_size": "",
                            "max_width": "",
                            "max_height": "",
                            "max_size": "",
                            "mime_types": ""
                        },
                        {
                            "key": "field_6097f1b21ba9c",
                            "label": "Logo Link",
                            "name": "logo_link",
                            "type": "link",
                            "instructions": "",
                            "required": 0,
                            "conditional_logic": 0,
                            "wrapper": {
                                "width": "50",
                                "class": "",
                                "id": ""
                            },
                            "return_format": "array"
                        }
                    ]
                }
            ]
        },
        {
            "key": "field_60e463f564c52",
            "label": "RentReporters Image",
            "name": "rentreporters_image",
            "type": "image",
            "instructions": "",
            "required": 0,
            "conditional_logic": [
                [
                    {
                        "field": "field_6094fdbd6460e",
                        "operator": "==",
                        "value": "competitors-hero"
                    },
                    {
                        "field": "field_6094fdbd6460e",
                        "operator": "!=",
                        "value": "brokers-hero"
                    }
                ]
            ],
            "wrapper": {
                "width": "",
                "class": "",
                "id": ""
            },
            "return_format": "array",
            "preview_size": "medium",
            "library": "all",
            "min_width": "",
            "min_height": "",
            "min_size": "",
            "max_width": "",
            "max_height": "",
            "max_size": "",
            "mime_types": ""
        },
        {
            "key": "field_60e4641a64c53",
            "label": "RentReporters Competitor Image",
            "name": "rentreporters_competitor_image",
            "type": "image",
            "instructions": "",
            "required": 0,
            "conditional_logic": [
                [
                    {
                        "field": "field_6094fdbd6460e",
                        "operator": "==",
                        "value": "competitors-hero"
                    },
                    {
                        "field": "field_6094fdbd6460e",
                        "operator": "!=",
                        "value": "brokers-hero"
                    }
                ]
            ],
            "wrapper": {
                "width": "",
                "class": "",
                "id": ""
            },
            "return_format": "array",
            "preview_size": "medium",
            "library": "all",
            "min_width": "",
            "min_height": "",
            "min_size": "",
            "max_width": "",
            "max_height": "",
            "max_size": "",
            "mime_types": ""
        },
        {
            "key": "field_610e4ab38b830",
            "label": "First Text",
            "name": "first_text",
            "type": "text",
            "instructions": "",
            "required": 0,
            "conditional_logic": [
                [
                    {
                        "field": "field_6094fdbd6460e",
                        "operator": "==",
                        "value": "brokers-hero"
                    }
                ]
            ],
            "wrapper": {
                "width": "50",
                "class": "",
                "id": ""
            },
            "default_value": "Close More Deals",
            "placeholder": "",
            "prepend": "",
            "append": "",
            "maxlength": ""
        },
        {
            "key": "field_610e4aec8b832",
            "label": "First Image",
            "name": "first_image",
            "type": "image",
            "instructions": "",
            "required": 0,
            "conditional_logic": [
                [
                    {
                        "field": "field_6094fdbd6460e",
                        "operator": "==",
                        "value": "brokers-hero"
                    }
                ]
            ],
            "wrapper": {
                "width": "50",
                "class": "",
                "id": ""
            },
            "return_format": "array",
            "preview_size": "medium",
            "library": "all",
            "min_width": "",
            "min_height": "",
            "min_size": "",
            "max_width": "",
            "max_height": "",
            "max_size": "",
            "mime_types": ""
        },
        {
            "key": "field_610e4ac98b831",
            "label": "Second Text",
            "name": "second_text",
            "type": "text",
            "instructions": "",
            "required": 0,
            "conditional_logic": [
                [
                    {
                        "field": "field_6094fdbd6460e",
                        "operator": "==",
                        "value": "brokers-hero"
                    }
                ]
            ],
            "wrapper": {
                "width": "50",
                "class": "",
                "id": ""
            },
            "default_value": "Increase Commissions!",
            "placeholder": "",
            "prepend": "",
            "append": "",
            "maxlength": ""
        },
        {
            "key": "field_610e4af68b833",
            "label": "Second Image",
            "name": "second_image",
            "type": "image",
            "instructions": "",
            "required": 0,
            "conditional_logic": [
                [
                    {
                        "field": "field_6094fdbd6460e",
                        "operator": "==",
                        "value": "brokers-hero"
                    }
                ]
            ],
            "wrapper": {
                "width": "50",
                "class": "",
                "id": ""
            },
            "return_format": "array",
            "preview_size": "medium",
            "library": "all",
            "min_width": "",
            "min_height": "",
            "min_size": "",
            "max_width": "",
            "max_height": "",
            "max_size": "",
            "mime_types": ""
        }
    ],
    "location": [
        [
            {
                "param": "block",
                "operator": "==",
                "value": "acf\/page-header-block"
            }
        ]
    ],
    "menu_order": 0,
    "position": "acf_after_title",
    "style": "default",
    "label_placement": "top",
    "instruction_placement": "label",
    "hide_on_screen": "",
    "active": true,
    "description": "",
    "modified": 1628326684
}