[
    {
        "key": "group_63219cf1e88df",
        "title": "Takeoff- Content and Media Block",
        "fields": [
            {
                "key": "field_63219cf1f0c6d",
                "label": "Block Content",
                "name": "",
                "aria-label": "",
                "type": "tab",
                "instructions": "",
                "required": 0,
                "conditional_logic": 0,
                "wrapper": {
                    "width": "",
                    "class": "",
                    "id": ""
                },
                "placement": "top",
                "endpoint": 0
            },
            {
                "key": "field_63219fd682be4",
                "label": "Title",
                "name": "title",
                "aria-label": "",
                "type": "wysiwyg",
                "instructions": "",
                "required": 0,
                "conditional_logic": 0,
                "wrapper": {
                    "width": "",
                    "class": "",
                    "id": ""
                },
                "default_value": "",
                "tabs": "all",
                "toolbar": "full",
                "media_upload": 1,
                "delay": 0
            },
            {
                "key": "field_63219fdd82be5",
                "label": "Description",
                "name": "description",
                "aria-label": "",
                "type": "wysiwyg",
                "instructions": "",
                "required": 0,
                "conditional_logic": 0,
                "wrapper": {
                    "width": "",
                    "class": "",
                    "id": ""
                },
                "default_value": "",
                "tabs": "all",
                "toolbar": "full",
                "media_upload": 0,
                "delay": 1
            },
            {
                "key": "field_63219ff682be6",
                "label": "Cta Link",
                "name": "cta_link",
                "aria-label": "",
                "type": "link",
                "instructions": "",
                "required": 0,
                "conditional_logic": 0,
                "wrapper": {
                    "width": "",
                    "class": "",
                    "id": ""
                },
                "return_format": "array"
            },
            {
                "key": "field_63219fb182be3",
                "label": "Poster Image",
                "name": "poster_image",
                "aria-label": "",
                "type": "image",
                "instructions": "",
                "required": 0,
                "conditional_logic": 0,
                "wrapper": {
                    "width": "",
                    "class": "",
                    "id": ""
                },
                "return_format": "array",
                "preview_size": "medium",
                "library": "all",
                "min_width": "",
                "min_height": "",
                "min_size": "",
                "max_width": "",
                "max_height": "",
                "max_size": "",
                "mime_types": ""
            },
            {
                "key": "field_62af3dccd34d8",
                "label": "Video",
                "name": "video",
                "aria-label": "",
                "type": "group",
                "instructions": "",
                "required": 0,
                "conditional_logic": 0,
                "wrapper": {
                    "width": "",
                    "class": "",
                    "id": ""
                },
                "layout": "block",
                "sub_fields": [
                    {
                        "key": "field_62a6f19899108",
                        "label": "Video type",
                        "name": "video_type",
                        "aria-label": "",
                        "type": "radio",
                        "instructions": "",
                        "required": 0,
                        "conditional_logic": 0,
                        "wrapper": {
                            "width": "35",
                            "class": "",
                            "id": ""
                        },
                        "choices": {
                            "url": "Url",
                            "file": "File",
                            "vimeo": "Vimeo"
                        },
                        "allow_null": 0,
                        "other_choice": 0,
                        "default_value": "",
                        "layout": "horizontal",
                        "return_format": "value",
                        "save_other_choice": 0
                    },
                    {
                        "key": "field_62a6f1f199109",
                        "label": "Video Url",
                        "name": "video_url",
                        "aria-label": "",
                        "type": "url",
                        "instructions": "",
                        "required": 0,
                        "conditional_logic": [
                            [
                                {
                                    "field": "field_62a6f19899108",
                                    "operator": "==",
                                    "value": "url"
                                }
                            ]
                        ],
                        "wrapper": {
                            "width": "65",
                            "class": "",
                            "id": ""
                        },
                        "default_value": "",
                        "placeholder": ""
                    },
                    {
                        "key": "field_62a6f2059910a",
                        "label": "Video File",
                        "name": "video_file",
                        "aria-label": "",
                        "type": "file",
                        "instructions": "",
                        "required": 0,
                        "conditional_logic": [
                            [
                                {
                                    "field": "field_62a6f19899108",
                                    "operator": "==",
                                    "value": "file"
                                }
                            ]
                        ],
                        "wrapper": {
                            "width": "65",
                            "class": "",
                            "id": ""
                        },
                        "return_format": "url",
                        "library": "all",
                        "min_size": "",
                        "max_size": "",
                        "mime_types": ""
                    },
                    {
                        "key": "field_6348581aa9f46",
                        "label": "Vimeo Url",
                        "name": "vimeo_url",
                        "aria-label": "",
                        "type": "url",
                        "instructions": "",
                        "required": 0,
                        "conditional_logic": [
                            [
                                {
                                    "field": "field_62a6f19899108",
                                    "operator": "==",
                                    "value": "vimeo"
                                }
                            ]
                        ],
                        "wrapper": {
                            "width": "65",
                            "class": "",
                            "id": ""
                        },
                        "default_value": "",
                        "placeholder": ""
                    }
                ]
            }
        ],
        "location": [
            [
                {
                    "param": "block",
                    "operator": "==",
                    "value": "acf\/content-and-media-block"
                }
            ]
        ],
        "menu_order": 0,
        "position": "acf_after_title",
        "style": "default",
        "label_placement": "top",
        "instruction_placement": "label",
        "hide_on_screen": "",
        "active": true,
        "description": "",
        "show_in_rest": 0,
        "modified": 1667197371
    }
]