{
  "name": "kiwi_block_slider_team",
  "readableName": "Kiwi Block Slider Team ",
  "media": "image",
  "mediaUrl": false,
  "siteUrl": "https://kiwiwebsitedesign.nz/",
  "tags": [
    "ayman",
    "ali",
    "abbass"
  ]
}
