{
  "name": "cyberhill_contact_block",
  "readableName": "Cyberhill Contact Block",
  "media": "image",
  "mediaUrl": false,
  "siteUrl": "https://cyberhillpartners.com/contact/",
  "tags": [
    "ayman",
    "ali",
    "abbass"
  ]
}
