{
  "name": "propellerhealth_icon_text_columns_block",
  "readableName": "Propellerhealth Icon Text Columns Block",
  "media": "image",
  "mediaUrl": false,
  "siteUrl": "https://propellerhealth.com/",
  "tags": [
    "ayman",
    "ali",
    "abbass"
  ]
}
