{
  "name": "raistone_contact_us_block",
  "readableName": "Raistone Contact Us Block",
  "media": "image",
  "mediaUrl": false,
  "siteUrl": "https://raistone.com/solutions-for-suppliers/",
  "tags": [
    "ayman",
    "ali",
    "abbass"
  ]
}
